{
  "js/app.js": "js/app-fb05007474e166194210.js",
  "js/site.js": "js/site-fb05007474e166194210.js",
  "styles/master.css": "styles/master-a27b8fa1b1.css",
  "styles/utilities/hampton-cp.css": "styles/utilities/hampton-cp-d944afdf80.css",
  "styles/utilities/sitelink.css": "styles/utilities/sitelink-68f544d35d.css"
}